<?xml version="1.0" encoding="UTF-8" standalone="no"?>
<svg
   xmlns:dc="http://purl.org/dc/elements/1.1/"
   xmlns:cc="http://creativecommons.org/ns#"
   xmlns:rdf="http://www.w3.org/1999/02/22-rdf-syntax-ns#"
   xmlns:svg="http://www.w3.org/2000/svg"
   xmlns="http://www.w3.org/2000/svg"
   xmlns:sodipodi="http://sodipodi.sourceforge.net/DTD/sodipodi-0.dtd"
   xmlns:inkscape="http://www.inkscape.org/namespaces/inkscape"
   aria-labelledby="simpleicons-facebook-icon"
   role="img"
   viewBox="0 0 24 24"
   version="1.1"
   id="svg5"
   sodipodi:docname="cortext.svg"
   inkscape:version="0.92.3 (2405546, 2018-03-11)">
  <metadata
     id="metadata11">
    <rdf:RDF>
      <cc:Work
         rdf:about="">
        <dc:format>image/svg+xml</dc:format>
        <dc:type
           rdf:resource="http://purl.org/dc/dcmitype/StillImage" />
        <dc:title>Facebook icon</dc:title>
      </cc:Work>
    </rdf:RDF>
  </metadata>
  <defs
     id="defs9" />
  <sodipodi:namedview
     pagecolor="#ffffff"
     bordercolor="#666666"
     borderopacity="1"
     objecttolerance="10"
     gridtolerance="10"
     guidetolerance="10"
     inkscape:pageopacity="0"
     inkscape:pageshadow="2"
     inkscape:window-width="1429"
     inkscape:window-height="480"
     id="namedview7"
     showgrid="false"
     inkscape:zoom="9.8333333"
     inkscape:cx="-1.0677966"
     inkscape:cy="12"
     inkscape:window-x="491"
     inkscape:window-y="478"
     inkscape:window-maximized="0"
     inkscape:current-layer="svg5" />
  <title
     id="simpleicons-facebook-icon">Facebook icon</title>
  <path
     d="m 7.4790426,14.473358 c -1.2004979,0.71035 -2.7773955,0.550173 -3.8082645,-0.480696 -1.2205616,-1.220728 -1.2207274,-3.206855 0,-4.4274166 1.2205611,-1.2207273 3.2068548,-1.2207273 4.4274164,0 l 1.341606,-1.341772 c -1.9604263,-1.9604264 -5.1503684,-1.9604264 -7.1107947,0 -1.96042632,1.9604266 -1.96042632,5.1505336 0,7.1109606 1.7735536,1.773388 4.5529383,1.942353 6.5185049,0.507227 z"
     id="path5"
     inkscape:connector-curvature="0"
     style="fill:#313131;fill-opacity:1;stroke-width:0.16581464" />
  <polygon
     points="144.379,342.677 136.288,350.768 146.24,360.721 132.891,374.07 140.982,382.161 154.331,368.812 164.365,378.846 172.456,370.754 162.423,360.721 154.331,352.63 "
     id="polygon7"
     style="fill:#ffffff;fill-opacity:1"
     transform="matrix(0.16581463,0,0,0.16581463,-13.936912,-48.033952)" />
  <path
     d="m 20.959109,8.2044047 c -1.960427,-1.9604264 -5.150369,-1.9604264 -7.110795,0 l -1.663618,1.6636182 1.341606,1.3417721 1.663618,-1.6637841 c 1.220562,-1.2205615 3.206855,-1.2205615 4.427583,1.658e-4 1.220561,1.2205613 1.220561,3.2066893 0,4.4274173 -1.220728,1.220726 -3.206856,1.22056 -4.427583,0 l -1.341606,1.341771 c 1.960426,1.960261 5.150534,1.960261 7.110961,0 1.96026,-1.960592 1.96026,-5.150534 -1.66e-4,-7.1109603 z"
     id="path9"
     inkscape:connector-curvature="0"
     style="fill:#ffffff;fill-opacity:1;stroke-width:0.16581464" />
</svg>
